[gd_scene format=2]

[node name="Recipe Screen" type="Control"]
anchor_right = 1.0
anchor_bottom = 1.0
margin_right = -60.0
__meta__ = {
"_edit_use_anchors_": false
}

[node name="Panel" type="Panel" parent="."]
anchor_right = 1.0
anchor_bottom = 1.0

[node name="TabContainer" type="TabContainer" parent="."]
anchor_right = 1.0
anchor_bottom = 1.0
__meta__ = {
"_edit_use_anchors_": false
}

[node name="Search" type="Tabs" parent="TabContainer"]
anchor_right = 1.0
anchor_bottom = 1.0
margin_left = 4.0
margin_top = 32.0
margin_right = -920.0
margin_bottom = -544.0

[node name="VScrollBar" type="VScrollBar" parent="TabContainer/Search"]
anchor_right = 1.0
anchor_bottom = 1.0
__meta__ = {
"_edit_use_anchors_": false
}

[node name="Recipes" type="Tabs" parent="TabContainer"]
visible = false
anchor_right = 1.0
anchor_bottom = 1.0
margin_left = 8.0
margin_top = 64.0
margin_bottom = 28.0
__meta__ = {
"_edit_use_anchors_": false
}

[node name="Grocery" type="Tabs" parent="TabContainer"]
visible = false
anchor_right = 1.0
anchor_bottom = 1.0
margin_left = 16.0
margin_top = 128.0
margin_right = 8.0
margin_bottom = 92.0
__meta__ = {
"_edit_use_anchors_": false
}

[node name="Pantry" type="Tabs" parent="TabContainer"]
visible = false
anchor_right = 1.0
anchor_bottom = 1.0
margin_left = 32.0
margin_top = 256.0
margin_right = 24.0
margin_bottom = 220.0
__meta__ = {
"_edit_use_anchors_": false
}

[node name="AcceptDialog" type="AcceptDialog" parent="."]
anchor_left = 0.5
anchor_top = 0.5
anchor_right = 0.5
anchor_bottom = 0.5
margin_left = -157.0
margin_top = -92.0
margin_right = 157.0
margin_bottom = 92.0

[node name="RichTextLabel" type="RichTextLabel" parent="AcceptDialog"]
margin_right = 40.0
margin_bottom = 40.0

[node name="TextEdit" type="TextEdit" parent="AcceptDialog"]
margin_right = 40.0
margin_bottom = 40.0
