[gd_scene format=2]

[node name="Tasklist Screen" type="Control"]
anchor_right = 1.0
anchor_bottom = 1.0
margin_right = -60.0
__meta__ = {
"_edit_use_anchors_": false
}

[node name="Panel" type="Panel" parent="."]
anchor_right = 1.0
anchor_bottom = 1.0

[node name="Label" type="Label" parent="."]
anchor_left = 0.5
anchor_top = 0.5
anchor_right = 0.5
anchor_bottom = 0.5
margin_left = -69.5
margin_top = -7.0
margin_right = 69.5
margin_bottom = 7.0
text = "Tasklist Screen content"
